Working with Census microdata • tidycensus
…
install.packages(c("survey", "srvyr"))

library(tidyverse)
library(tidycensus)

pums_vars_2018 <- pums_variables %>% 
  filter(year == 2018, survey == "acs1")

pums_variables contains both the variables as well as
their possible values. So let’s just look at the unique variables.

pums_vars_2018 %>% 
  distinct(var_code, var_label, data_type, level)

## # A tibble: 513 × 4
##   var_code var_label                                                                      data_type level
##   <chr>    <chr>                                                                          <chr>     <chr>
## 1 SERIALNO Housing unit/GQ person serial number                                           chr       NA   
## 2 DIVISION Division code based on 2010 Census definitions                                 chr       NA   
## 3 PUMA     Public use microdata area code (PUMA) based on 2010 Census definition (areas … chr       NA   
## 4 REGION   Region code based on 2010 Census definitions                                   chr       NA   
## 5 ST       State Code based on 2010 Census definitions                                    chr       NA   
## # ℹ 508 more rows
…
Individuals in PUMS data are always nested within a housing unit (The
ACS is sent to an housing unit address and all people living in that
unit complete the survey.) Housing units are uniquely identified by the
SERIALNO variable and persons are uniquely identified by
the combination of SERIALNO and SPORDER. In
the data dictionary included in tidycensus, variables are identified as
either “housing” or “person” variables in the level column. Here, for
example, are the first five person-level variables in the data
dictionary.

pums_vars_2018 %>% 
  distinct(var_code, var_label, data_type, level) %>% 
  filter(level == "person")

## # A tibble: 279 × 4
##   var_code var_label                       data_type level 
##   <chr>    <chr>                           <chr>     <chr> 
## 1 SPORDER  Person number                   num       person
## 2 PWGTP    Person's weight                 num       person
## 3 AGEP     Age                             num       person
## 4 CIT      Citizenship status              chr       person
## 5 CITWP    Year of naturalization write-in num       person
## # ℹ 274 more rows
…
vt_pums <- get_pums(
  variables = c("PUMA", "SEX", "AGEP", "SCHL"),
  state = "VT",
  survey = "acs1",
  year = 2018
  )

vt_pums

## # A tibble: 6,436 × 9
##   SERIALNO      SPORDER  WGTP PWGTP  AGEP PUMA  ST    SCHL  SEX  
##   <chr>           <dbl> <dbl> <dbl> <dbl> <chr> <chr> <chr> <chr>
## 1 2018GQ0001230       1     0     3    26 00300 50    20    1    
## 2 2018GQ0002135       1     0    64    18 00100 50    19    2    
## 3 2018GQ0002999       1     0    62    20 00400 50    19    2    
## 4 2018GQ0004077       1     0    16    94 00200 50    21    2    
## 5 2018GQ0006486       1     0    26    20 00400 50    19    1    
## # ℹ 6,431 more rows
…
vt_pums_recoded <- get_pums(
  variables = c("PUMA", "SEX", "AGEP", "SCHL"),
  state = "VT",
  survey = "acs1",
  year = 2018,
  recode = TRUE
  )

vt_pums_recoded

## # A tibble: 6,436 × 12
##   SERIALNO      SPORDER  WGTP PWGTP  AGEP PUMA  ST    SCHL  SEX   ST_label   SCHL_label         SEX_label
##   <chr>           <dbl> <dbl> <dbl> <dbl> <chr> <chr> <chr> <chr> <ord>      <ord>              <ord>    
## 1 2018GQ0001230       1     0     3    26 00300 50    20    1     Vermont/VT Associate's degree Male     
## 2 2018GQ0002135       1     0    64    18 00100 50    19    2     Vermont/VT 1 or more years o… Female   
## 3 2018GQ0002999       1     0    62    20 00400 50    19    2     Vermont/VT 1 or more years o… Female   
## 4 2018GQ0004077       1     0    16    94 00200 50    21    2     Vermont/VT Bachelor's degree  Female   
## 5 2018GQ0006486       1     0    26    20 00400 50    19    1     Vermont/VT 1 or more years o… Male     
## # ℹ 6,431 more rows
…
